Lab 7 | Group 3
…
Rotation matrix

# check the rotation
pca_fit %>%
  tidy(matrix = "rotation")

# A tibble: 100 × 3
   column       PC    value
   <chr>     <dbl>    <dbl>
 1 g1int1385     1  0.0922 
 2 g1int1385     2  0.330  
 3 g1int1385     3  0.364  
 4 g1int1385     4 -0.0170 
 5 g1int1385     5  0.229  
 6 g1int1385     6  0.639  
 7 g1int1385     7  0.485  
 8 g1int1385     8  0.0177 
 9 g1int1385     9 -0.231  
10 g1int1385    10  0.00255
# ℹ 90 more rows
…
